Cleaning data - Anant Dalela
…
> apple_mobility
# A tibble: 39,500 x 5
   geo_type       region  transportation_type date       index
   <chr>          <chr>   <chr>               <date>     <dbl>
 1 country/region Albania driving             2020-01-13 100  
 2 country/region Albania driving             2020-01-14  95.3
 3 country/region Albania driving             2020-01-15 101. 
 4 country/region Albania driving             2020-01-16  97.2
 5 country/region Albania driving             2020-01-17 104. 
 6 country/region Albania driving             2020-01-18 113. 
 7 country/region Albania driving             2020-01-19 105. 
 8 country/region Albania driving             2020-01-20  94.4
 9 country/region Albania driving             2020-01-21  94.1
10 country/region Albania driving             2020-01-22  93.5
# … with 39,490 more rows
…
